[gd_scene load_steps=14 format=3 uid="uid://3asrjje8ede"]

[ext_resource type="PackedScene" uid="uid://cn5vdug47p4qx" path="res://game_jam_template/menu/templates/sub_menu_template.tscn" id="1_yiniq"]
[ext_resource type="Script" path="res://game_jam_template/menu/credits/credits.gd" id="2_7xxck"]
[ext_resource type="Script" path="res://game_jam_template/menu/credits/credits_item.gd" id="3_0oi6g"]
[ext_resource type="Script" path="res://game_jam_template/menu/credits/credits_category.gd" id="4_01rme"]
[ext_resource type="Script" path="res://game_jam_template/menu/credits/credits_resource.gd" id="5_rdoil"]

[sub_resource type="Resource" id="Resource_m56nl"]
script = ExtResource("3_0oi6g")
name = "Programming"
author = "Benedikt Wicklein"
url = ""

[sub_resource type="Resource" id="Resource_7u5kl"]
script = ExtResource("4_01rme")
name = "Development"
items = Array[ExtResource("3_0oi6g")]([SubResource("Resource_m56nl")])

[sub_resource type="Resource" id="Resource_urywj"]
script = ExtResource("3_0oi6g")
name = "Godot Engine"
author = ""
url = "https://godotengine.org"

[sub_resource type="Resource" id="Resource_jytef"]
script = ExtResource("3_0oi6g")
name = "GameJamTemplate"
author = "Benedikt Wicklein"
url = "\"https://github.com/whiteshampoo/GameJamTemplate\""

[sub_resource type="Resource" id="Resource_xvahf"]
script = ExtResource("4_01rme")
name = "Software"
items = Array[ExtResource("3_0oi6g")]([SubResource("Resource_urywj"), SubResource("Resource_jytef")])

[sub_resource type="Resource" id="Resource_7bgtd"]
script = ExtResource("3_0oi6g")
name = "Snowflake"
author = "mkwong98"
url = "https://opengameart.org/content/snow-flake"

[sub_resource type="Resource" id="Resource_w3i1x"]
script = ExtResource("4_01rme")
name = "Graphics"
items = Array[ExtResource("3_0oi6g")]([SubResource("Resource_7bgtd")])

[sub_resource type="Resource" id="Resource_415c1"]
script = ExtResource("5_rdoil")
categories = [SubResource("Resource_7u5kl"), SubResource("Resource_xvahf"), SubResource("Resource_w3i1x")]

[node name="Credits" instance=ExtResource("1_yiniq")]
script = ExtResource("2_7xxck")
credits = SubResource("Resource_415c1")

[node name="Text" type="RichTextLabel" parent="." index="2"]
layout_mode = 1
anchors_preset = -1
anchor_right = 1.0
anchor_bottom = 1.0
offset_left = 16.0
offset_right = -16.0
grow_horizontal = 2
grow_vertical = 2
bbcode_enabled = true
text = "[center]
[font_size=32][color=ffffffff]MyAwesomeGame[/color][/font_size]



[font_size=24][color=ffffffff]Development[/color][/font_size]

[table=3]
[cell][right][font_size=16][color=ffffffff]Programming[/color][/font_size]
[/right][/cell][cell][code]    [/code][/cell][cell][left][font_size=16][color=ffffffff]Benedikt Wicklein[/color][/font_size]
[/left][/cell]
[/table]



[font_size=24][color=ffffffff]Software[/color][/font_size]

[table=3]
[cell][right][font_size=16][color=ffffffff][url=https://godotengine.org]Godot Engine[/url][/color][/font_size]
[/right][/cell][cell][code]    [/code][/cell][cell][left][font_size=16][color=ffffffff][/color][/font_size]
[/left][/cell]
[cell][right][font_size=16][color=ffffffff]GameJamTemplate[/color][/font_size]
[/right][/cell][cell][code]    [/code][/cell][cell][left][font_size=16][color=ffffffff]Benedikt Wicklein[/color][/font_size]
[/left][/cell]
[/table]



[font_size=24][color=ffffffff]Graphics[/color][/font_size]

[table=3]
[cell][right][font_size=16][color=ffffffff][url=https://opengameart.org/content/snow-flake]Snowflake[/url][/color][/font_size]
[/right][/cell][cell][code]    [/code][/cell][cell][left][font_size=16][color=ffffffff]mkwong98[/color][/font_size]
[/left][/cell]
[/table]



[/center]"

[connection signal="meta_clicked" from="Text" to="." method="_on_text_meta_clicked"]
